Verilog_project2/register_4bit.vcd
$date
	Thu Jul 16 07:16:52 2026
$end
$version
	Icarus Verilog
$end
$timescale
	1s
$end
$scope module tb_register_4bit $end
$var wire 4 ! q [3:0] $end
$var reg 1 " clk $end
$var reg 4 # d [3:0] $end
$var reg 1 $ rst $end
$scope module uut $end
$var wire 1 " clk $end
$var wire 4 % d [3:0] $end
$var wire 1 $ rst $end
$var reg 4 & q [3:0] $end
$upscope $end
$upscope $end
$enddefinitions $end
$comment Show the parameter values. $end
$dumpall
$end
#0
$dumpvars
b0 &
b0 %
1$
b0 #
0"
b0 !
$end
#5
1"
#10
0"
b1010 #
b1010 %
0$
#15
b1010 !
b1010 &
1"
#20
0"
b101 #
b101 %
#25
b101 !
b101 &
1"
#30
0"
b1111 #
b1111 %
#35
b1111 !
b1111 &
1"
#40
b0 !
b0 &
0"
1$
#45
1"
#50
0"
b11 #
b11 %
0$
#55
b11 !
b11 &
1"
