Verilog_project2/shift_register_4bit.vcd
$date
	Thu Jul 16 07:27:49 2026
$end
$version
	Icarus Verilog
$end
$timescale
	1s
$end
$scope module tb_shift_register_4bit $end
$var wire 4 ! q [3:0] $end
$var reg 1 " clk $end
$var reg 1 # rst $end
$var reg 1 $ serial_in $end
$scope module uut $end
$var wire 1 " clk $end
$var wire 1 # rst $end
$var wire 1 $ serial_in $end
$var reg 4 % q [3:0] $end
$upscope $end
$upscope $end
$enddefinitions $end
$comment Show the parameter values. $end
$dumpall
$end
#0
$dumpvars
b0 %
0$
1#
0"
b0 !
$end
#5
1"
#10
0"
1$
0#
#15
b1 !
b1 %
1"
#20
0"
0$
#25
b10 !
b10 %
1"
#30
0"
1$
#35
b101 !
b101 %
1"
#40
0"
#45
b1011 !
b1011 %
1"
