Verilog_project2/up_down_counter.vcd
$date
	Thu Jul 16 08:19:33 2026
$end
$version
	Icarus Verilog
$end
$timescale
	1s
$end
$scope module tb_up_down_counter_4bit $end
$var wire 4 ! q [3:0] $end
$var reg 1 " clk $end
$var reg 1 # rst $end
$var reg 1 $ up_down $end
$scope module uut $end
$var wire 1 " clk $end
$var wire 1 # rst $end
$var wire 1 $ up_down $end
$var reg 4 % q [3:0] $end
$upscope $end
$upscope $end
$enddefinitions $end
$comment Show the parameter values. $end
$dumpall
$end
#0
$dumpvars
b0 %
1$
1#
0"
b0 !
$end
#5
1"
#10
0"
0#
#15
b1 !
b1 %
1"
#20
0"
#25
b10 !
b10 %
1"
#30
0"
#35
b11 !
b11 %
1"
#40
0"
#45
b100 !
b100 %
1"
#50
0"
#55
b101 !
b101 %
1"
#60
0"
0$
#65
b100 !
b100 %
1"
#70
0"
#75
b11 !
b11 %
1"
#80
0"
#85
b10 !
b10 %
1"
#90
0"
#95
b1 !
b1 %
1"
#100
0"
#105
b0 !
b0 %
1"
